{
	"title": "Taste of Human Flesh",
	"body": "lorem bla bla bla...",
	"author": {
		"name": "Hannibal Lecter",
		"occupation": "Doctor"
	},
	"likes": 230,
	"isPublished": true,
	"comments": [
		{
			"user": "Dwayne",
			"comment": "Awesome post. Thanks!"
		},
		{
			"user": "Clarence",
			"comment": "You suck!"
		}
	]
}
